{
    "v": "5.0.5",
    "fr": 29.9700012207031,
    "ip": 0,
    "op": 636.000025904811,
    "w": 750,
    "h": 1334,
    "nm": "Gradient",
    "ddd": 0,
    "assets": [
        {
            "id": "image_0",
            "w": 676,
            "h": 450,
            "u": "images/",
            "p": "img_0.png"
        },
        {
            "id": "image_1",
            "w": 317,
            "h": 476,
            "u": "images/",
            "p": "img_1.png"
        },
        {
            "id": "image_2",
            "w": 675,
            "h": 450,
            "u": "images/",
            "p": "img_2.png"
        },
        {
            "id": "image_3",
            "w": 317,
            "h": 476,
            "u": "images/",
            "p": "img_3.png"
        },
        {
            "id": "image_4",
            "w": 676,
            "h": 450,
            "u": "images/",
            "p": "img_4.png"
        }
    ],
    "layers": [
        {
            "ddd": 0,
            "ind": 6,
            "ty": 2,
            "nm": "photo-1479660095429-2cf4e1360472.jpeg",
            "cl": "jpeg",
            "refId": "image_0",
            "sr": 1,
            "ks": {
                "o": {
                    "a": 0,
                    "k": 100,
                    "ix": 11
                },
                "r": {
                    "a": 0,
                    "k": 0,
                    "ix": 10
                },
                "p": {
                    "a": 1,
                    "k": [
                        {
                            "i": {
                                "x": 0.833,
                                "y": 0.833
                            },
                            "o": {
                                "x": 0.167,
                                "y": 0.167
                            },
                            "n": "0p833_0p833_0p167_0p167",
                            "t": 0,
                            "s": [
                                1271,
                                610,
                                0
                            ],
                            "e": [
                                -534,
                                610,
                                0
                            ],
                            "to": [
                                -300.833343505859,
                                0,
                                0
                            ],
                            "ti": [
                                300.833343505859,
                                0,
                                0
                            ]
                        },
                        {
                            "t": 617.000025130925
                        }
                    ],
                    "ix": 2
                },
                "a": {
                    "a": 0,
                    "k": [
                        338,
                        225,
                        0
                    ],
                    "ix": 1
                },
                "s": {
                    "a": 0,
                    "k": [
                        110,
                        110,
                        100
                    ],
                    "ix": 6
                }
            },
            "ao": 0,
            "ip": -27.0000010997325,
            "op": 900.000036657751,
            "st": 0,
            "bm": 0
        },
        {
            "ddd": 0,
            "ind": 7,
            "ty": 2,
            "nm": "photo-1477505982272-ead89926a577.jpeg",
            "cl": "jpeg",
            "refId": "image_1",
            "sr": 1,
            "ks": {
                "o": {
                    "a": 0,
                    "k": 100,
                    "ix": 11
                },
                "r": {
                    "a": 0,
                    "k": 0,
                    "ix": 10
                },
                "p": {
                    "a": 1,
                    "k": [
                        {
                            "i": {
                                "x": 0.833,
                                "y": 0.833
                            },
                            "o": {
                                "x": 0.167,
                                "y": 0.167
                            },
                            "n": "0p833_0p833_0p167_0p167",
                            "t": 80,
                            "s": [
                                1162.771,
                                35,
                                0
                            ],
                            "e": [
                                -409.229,
                                35,
                                0
                            ],
                            "to": [
                                -107.450439453125,
                                0,
                                0
                            ],
                            "ti": [
                                0,
                                0,
                                0
                            ]
                        },
                        {
                            "t": 635.00002586408
                        }
                    ],
                    "ix": 2
                },
                "a": {
                    "a": 0,
                    "k": [
                        158.5,
                        238,
                        0
                    ],
                    "ix": 1
                },
                "s": {
                    "a": 0,
                    "k": [
                        90,
                        90,
                        100
                    ],
                    "ix": 6
                }
            },
            "ao": 0,
            "ip": -102.000004154545,
            "op": 1011.00004117887,
            "st": 111.000004521123,
            "bm": 0
        },
        {
            "ddd": 0,
            "ind": 8,
            "ty": 2,
            "nm": "gradient-girl 2",
            "refId": "image_2",
            "sr": 1,
            "ks": {
                "o": {
                    "a": 0,
                    "k": 100,
                    "ix": 11
                },
                "r": {
                    "a": 0,
                    "k": 0,
                    "ix": 10
                },
                "p": {
                    "a": 1,
                    "k": [
                        {
                            "i": {
                                "x": 0.833,
                                "y": 0.833
                            },
                            "o": {
                                "x": 0.167,
                                "y": 0.167
                            },
                            "n": "0p833_0p833_0p167_0p167",
                            "t": 364,
                            "s": [
                                1808,
                                619,
                                0
                            ],
                            "e": [
                                551,
                                619,
                                0
                            ],
                            "to": [
                                -209.5,
                                0,
                                0
                            ],
                            "ti": [
                                209.5,
                                0,
                                0
                            ]
                        },
                        {
                            "t": 636.000025904811
                        }
                    ],
                    "ix": 2
                },
                "a": {
                    "a": 0,
                    "k": [
                        337.5,
                        225,
                        0
                    ],
                    "ix": 1
                },
                "s": {
                    "a": 0,
                    "k": [
                        67,
                        67,
                        100
                    ],
                    "ix": 6
                }
            },
            "ao": 0,
            "ip": 0,
            "op": 900.000036657751,
            "st": 0,
            "bm": 0
        },
        {
            "ddd": 0,
            "ind": 9,
            "ty": 2,
            "nm": "gradient-girl",
            "refId": "image_2",
            "sr": 1,
            "ks": {
                "o": {
                    "a": 0,
                    "k": 100,
                    "ix": 11
                },
                "r": {
                    "a": 0,
                    "k": 0,
                    "ix": 10
                },
                "p": {
                    "a": 1,
                    "k": [
                        {
                            "i": {
                                "x": 0.833,
                                "y": 0.833
                            },
                            "o": {
                                "x": 0.167,
                                "y": 0.167
                            },
                            "n": "0p833_0p833_0p167_0p167",
                            "t": 0,
                            "s": [
                                551,
                                619,
                                0
                            ],
                            "e": [
                                -917,
                                619,
                                0
                            ],
                            "to": [
                                -244.66667175293,
                                0,
                                0
                            ],
                            "ti": [
                                244.66667175293,
                                0,
                                0
                            ]
                        },
                        {
                            "t": 376.000015314794
                        }
                    ],
                    "ix": 2
                },
                "a": {
                    "a": 0,
                    "k": [
                        337.5,
                        225,
                        0
                    ],
                    "ix": 1
                },
                "s": {
                    "a": 0,
                    "k": [
                        67,
                        67,
                        100
                    ],
                    "ix": 6
                }
            },
            "ao": 0,
            "ip": 0,
            "op": 900.000036657751,
            "st": 0,
            "bm": 0
        },
        {
            "ddd": 0,
            "ind": 10,
            "ty": 2,
            "nm": "purple-hair 2",
            "refId": "image_3",
            "sr": 1,
            "ks": {
                "o": {
                    "a": 0,
                    "k": 100,
                    "ix": 11
                },
                "r": {
                    "a": 0,
                    "k": 0,
                    "ix": 10
                },
                "p": {
                    "a": 1,
                    "k": [
                        {
                            "i": {
                                "x": 0.833,
                                "y": 0.833
                            },
                            "o": {
                                "x": 0.167,
                                "y": 0.167
                            },
                            "n": "0p833_0p833_0p167_0p167",
                            "t": 152,
                            "s": [
                                949,
                                647,
                                0
                            ],
                            "e": [
                                -31,
                                647,
                                0
                            ],
                            "to": [
                                -163.33332824707,
                                0,
                                0
                            ],
                            "ti": [
                                163.33332824707,
                                0,
                                0
                            ]
                        },
                        {
                            "t": 635.00002586408
                        }
                    ],
                    "ix": 2
                },
                "a": {
                    "a": 0,
                    "k": [
                        158.5,
                        238,
                        0
                    ],
                    "ix": 1
                },
                "s": {
                    "a": 0,
                    "k": [
                        102,
                        102,
                        100
                    ],
                    "ix": 6
                }
            },
            "ao": 0,
            "ip": 0,
            "op": 900.000036657751,
            "st": 0,
            "bm": 0
        },
        {
            "ddd": 0,
            "ind": 11,
            "ty": 2,
            "nm": "ear-ring 2",
            "refId": "image_4",
            "sr": 1,
            "ks": {
                "o": {
                    "a": 0,
                    "k": 100,
                    "ix": 11
                },
                "r": {
                    "a": 0,
                    "k": 0,
                    "ix": 10
                },
                "p": {
                    "a": 1,
                    "k": [
                        {
                            "i": {
                                "x": 0.833,
                                "y": 0.833
                            },
                            "o": {
                                "x": 0.167,
                                "y": 0.167
                            },
                            "n": "0p833_0p833_0p167_0p167",
                            "t": 229,
                            "s": [
                                1680,
                                136,
                                0
                            ],
                            "e": [
                                307,
                                136,
                                0
                            ],
                            "to": [
                                -228.83332824707,
                                0,
                                0
                            ],
                            "ti": [
                                228.83332824707,
                                0,
                                0
                            ]
                        },
                        {
                            "t": 636.000025904811
                        }
                    ],
                    "ix": 2
                },
                "a": {
                    "a": 0,
                    "k": [
                        338,
                        225,
                        0
                    ],
                    "ix": 1
                },
                "s": {
                    "a": 0,
                    "k": [
                        78,
                        78,
                        100
                    ],
                    "ix": 6
                }
            },
            "ao": 0,
            "ip": 0,
            "op": 900.000036657751,
            "st": 0,
            "bm": 0
        },
        {
            "ddd": 0,
            "ind": 12,
            "ty": 2,
            "nm": "ear-ring",
            "refId": "image_4",
            "sr": 1,
            "ks": {
                "o": {
                    "a": 0,
                    "k": 100,
                    "ix": 11
                },
                "r": {
                    "a": 0,
                    "k": 0,
                    "ix": 10
                },
                "p": {
                    "a": 1,
                    "k": [
                        {
                            "i": {
                                "x": 0.833,
                                "y": 0.833
                            },
                            "o": {
                                "x": 0.167,
                                "y": 0.167
                            },
                            "n": "0p833_0p833_0p167_0p167",
                            "t": 0,
                            "s": [
                                307,
                                136,
                                0
                            ],
                            "e": [
                                -1033,
                                136,
                                0
                            ],
                            "to": [
                                -223.33332824707,
                                0,
                                0
                            ],
                            "ti": [
                                223.33332824707,
                                0,
                                0
                            ]
                        },
                        {
                            "t": 479.00001951007
                        }
                    ],
                    "ix": 2
                },
                "a": {
                    "a": 0,
                    "k": [
                        338,
                        225,
                        0
                    ],
                    "ix": 1
                },
                "s": {
                    "a": 0,
                    "k": [
                        78,
                        78,
                        100
                    ],
                    "ix": 6
                }
            },
            "ao": 0,
            "ip": 0,
            "op": 900.000036657751,
            "st": 0,
            "bm": 0
        },
        {
            "ddd": 0,
            "ind": 13,
            "ty": 2,
            "nm": "purple-hair",
            "refId": "image_3",
            "sr": 1,
            "ks": {
                "o": {
                    "a": 0,
                    "k": 100,
                    "ix": 11
                },
                "r": {
                    "a": 0,
                    "k": 0,
                    "ix": 10
                },
                "p": {
                    "a": 1,
                    "k": [
                        {
                            "i": {
                                "x": 0.833,
                                "y": 0.833
                            },
                            "o": {
                                "x": 0.167,
                                "y": 0.167
                            },
                            "n": "0p833_0p833_0p167_0p167",
                            "t": 0,
                            "s": [
                                -31,
                                647,
                                0
                            ],
                            "e": [
                                -256,
                                647,
                                0
                            ],
                            "to": [
                                -37.5,
                                0,
                                0
                            ],
                            "ti": [
                                37.5,
                                0,
                                0
                            ]
                        },
                        {
                            "t": 148.000006028164
                        }
                    ],
                    "ix": 2
                },
                "a": {
                    "a": 0,
                    "k": [
                        158.5,
                        238,
                        0
                    ],
                    "ix": 1
                },
                "s": {
                    "a": 0,
                    "k": [
                        102,
                        102,
                        100
                    ],
                    "ix": 6
                }
            },
            "ao": 0,
            "ip": 0,
            "op": 900.000036657751,
            "st": 0,
            "bm": 0
        }
    ],
    "markers": []
}